^E:\WorkSpace\VR\pianologram\App\pianologram\pianologram.vcxproj
E:\WorkSpace\VR\pianologram\App\build\obj\pianologram\Win32\Release\priconfig.xml
E:\WorkSpace\VR\pianologram\App\build\bin\Win32\Release\AppxManifest.xml
E:\WorkSpace\VR\pianologram\App\pianologram\StoreManifest.xml
E:\WorkSpace\VR\pianologram\App\pianologram\Data\il2cpp_data\etc\mono\mconfig\config.xml
E:\WorkSpace\VR\pianologram\App\build\obj\pianologram\Win32\Release\filtered.layout.resfiles
E:\WorkSpace\VR\pianologram\App\build\obj\pianologram\Win32\Release\resources.resfiles
E:\WorkSpace\VR\pianologram\App\build\obj\pianologram\Win32\Release\pri.resfiles
E:\WorkSpace\VR\pianologram\App\build\obj\pianologram\Win32\Release\embed\embed.resfiles
E:\WorkSpace\VR\pianologram\App\pianologram\Package.appxmanifest
E:\WorkSpace\VR\pianologram\App\pianologram\Package.appxmanifest
C:\Program Files (x86)\Windows Kits\10\Include\10.0.18362.0\WinRT\FoundationManifestSchema.xsd
C:\Program Files (x86)\Windows Kits\10\Include\10.0.18362.0\WinRT\UapManifestSchema.xsd
E:\WorkSpace\VR\pianologram\App\pianologram\WSATestCertificate.pfx
C:\Program Files\Unity\Editor\Data\PlaybackEngines\MetroSupport\Players\UAP\il2cpp\x86\Release\UnityPlayer.winmd
C:\Program Files\Unity\Editor\Data\PlaybackEngines\MetroSupport\Players\UAP\il2cpp\x86\Release\UnityPlayer.winmd
E:\WorkSpace\VR\pianologram\App\build\bin\Win32\Release\pianologram.winmd
E:\WorkSpace\VR\pianologram\App\build\obj\pianologram\Win32\Release\qualifiers.txt
E:\WorkSpace\VR\pianologram\App\pianologram\Data\nativePlugins.txt
E:\WorkSpace\VR\pianologram\App\build\obj\pianologram\Win32\Release\ProjectArchitectures.txt
E:\WorkSpace\VR\pianologram\App\build\bin\Win32\Release\pianologram.exe
C:\Program Files\Unity\Editor\Data\PlaybackEngines\MetroSupport\Players\UAP\il2cpp\x86\Release\UnityPlayer.dll
E:\WorkSpace\VR\pianologram\App\pianologram\AudioPluginMsHRTF.dll
E:\WorkSpace\VR\pianologram\App\build\bin\Win32\Release\GameAssembly.dll
E:\WorkSpace\VR\pianologram\App\pianologram\Assets\SplashScreen.scale-200.png
E:\WorkSpace\VR\pianologram\App\pianologram\Assets\Square150x150Logo.scale-200.png
E:\WorkSpace\VR\pianologram\App\pianologram\Assets\Square44x44Logo.scale-200.png
E:\WorkSpace\VR\pianologram\App\pianologram\Assets\Square44x44Logo.targetsize-24.png
E:\WorkSpace\VR\pianologram\App\pianologram\Assets\Square44x44Logo.targetsize-24_altform-unplated.png
E:\WorkSpace\VR\pianologram\App\pianologram\Assets\StoreLogo.png
E:\WorkSpace\VR\pianologram\App\pianologram\Assets\Wide310x150Logo.scale-200.png
E:\WorkSpace\VR\pianologram\App\pianologram\NuGet.config
E:\WorkSpace\VR\pianologram\App\pianologram\Data\boot.config
E:\WorkSpace\VR\pianologram\App\pianologram\Data\il2cpp_data\etc\mono\2.0\machine.config
E:\WorkSpace\VR\pianologram\App\pianologram\Data\il2cpp_data\etc\mono\2.0\web.config
E:\WorkSpace\VR\pianologram\App\pianologram\Data\il2cpp_data\etc\mono\4.0\machine.config
E:\WorkSpace\VR\pianologram\App\pianologram\Data\il2cpp_data\etc\mono\4.0\web.config
E:\WorkSpace\VR\pianologram\App\pianologram\Data\il2cpp_data\etc\mono\4.5\machine.config
E:\WorkSpace\VR\pianologram\App\pianologram\Data\il2cpp_data\etc\mono\4.5\web.config
E:\WorkSpace\VR\pianologram\App\pianologram\Data\globalgamemanagers
E:\WorkSpace\VR\pianologram\App\pianologram\Data\level0
E:\WorkSpace\VR\pianologram\App\pianologram\Data\il2cpp_data\etc\mono\config
E:\WorkSpace\VR\pianologram\App\pianologram\Data\Resources\unity default resources
E:\WorkSpace\VR\pianologram\App\pianologram\Data\Resources\unity_builtin_extra
E:\WorkSpace\VR\pianologram\App\pianologram\Data\globalgamemanagers.assets
E:\WorkSpace\VR\pianologram\App\pianologram\Data\resources.assets
E:\WorkSpace\VR\pianologram\App\pianologram\Data\sharedassets0.assets
E:\WorkSpace\VR\pianologram\App\pianologram\Data\sharedassets0.assets.resS
E:\WorkSpace\VR\pianologram\App\pianologram\Data\il2cpp_data\etc\mono\browscap.ini
E:\WorkSpace\VR\pianologram\App\pianologram\Data\il2cpp_data\etc\mono\2.0\DefaultWsdlHelpGenerator.aspx
E:\WorkSpace\VR\pianologram\App\pianologram\Data\il2cpp_data\etc\mono\4.0\DefaultWsdlHelpGenerator.aspx
E:\WorkSpace\VR\pianologram\App\pianologram\Data\il2cpp_data\etc\mono\4.5\DefaultWsdlHelpGenerator.aspx
E:\WorkSpace\VR\pianologram\App\pianologram\Data\il2cpp_data\etc\mono\2.0\settings.map
E:\WorkSpace\VR\pianologram\App\pianologram\Data\il2cpp_data\etc\mono\4.0\settings.map
E:\WorkSpace\VR\pianologram\App\pianologram\Data\il2cpp_data\etc\mono\4.5\settings.map
E:\WorkSpace\VR\pianologram\App\pianologram\Data\il2cpp_data\etc\mono\2.0\Browsers\Compat.browser
E:\WorkSpace\VR\pianologram\App\pianologram\Data\il2cpp_data\etc\mono\4.0\Browsers\Compat.browser
E:\WorkSpace\VR\pianologram\App\pianologram\Data\il2cpp_data\etc\mono\4.5\Browsers\Compat.browser
E:\WorkSpace\VR\pianologram\App\pianologram\Data\il2cpp_data\Metadata\global-metadata.dat
E:\WorkSpace\VR\pianologram\App\pianologram\Data\il2cpp_data\Resources\I18N.CJK.dll-resources.dat
E:\WorkSpace\VR\pianologram\App\pianologram\Data\il2cpp_data\Resources\mscorlib.dll-resources.dat
E:\WorkSpace\VR\pianologram\App\build\bin\Win32\Release\resources.pri
E:\WorkSpace\VR\pianologram\App\pianologram\pianologram.vcxproj.user
